{
    "MoS2": {
        "A": 8.1489, "B": -0.0015, "C": 0.3645, "D": -0.1570, "mumin": 32.4, "mumax": 34.3, "muc": 153.0, "Tcmax": 10.8
    },
    "MoSe2": {
        "A": 6.3500, "B": -0.0106, "C": 0.5018, "D": -0.2279, "mumin": 125.3, "mumax": 143.0, "muc": 120.0, "Tcmax": 7.1
    },
    "MoTe2": {
        "A": 6.1451, "B": -0.0180, "C": 0.6964, "D": -0.6575, "mumin": 134.7, "mumax": 182.9, "muc": 116.0, "Tcmax": 2.8
    },
    "WS2": {
        "A": 12.4405, "B": 0.0148, "C": 1.2222, "D": -0.3916, "mumin": null, "mumax": null, "muc": 78.2, "Tcmax": 3.15
    },
    "Free": {
        "A": 3.81, "B": 0.0, "C": 0.0, "D": 0.0, "mumin": null, "mumax": null, "muc": null, "Tcmax": null
    }
}
