<?xml version="1.0" encoding="UTF-8" standalone="no"?>
<!-- Created with Inkscape (http://www.inkscape.org/) -->

<svg
   xmlns:dc="http://purl.org/dc/elements/1.1/"
   xmlns:cc="http://creativecommons.org/ns#"
   xmlns:rdf="http://www.w3.org/1999/02/22-rdf-syntax-ns#"
   xmlns:svg="http://www.w3.org/2000/svg"
   xmlns="http://www.w3.org/2000/svg"
   xmlns:sodipodi="http://sodipodi.sourceforge.net/DTD/sodipodi-0.dtd"
   xmlns:inkscape="http://www.inkscape.org/namespaces/inkscape"
   width="210mm"
   height="297mm"
   viewBox="0 0 744.09448819 1052.3622047"
   id="svg2"
   version="1.1"
   inkscape:version="0.91 r13725"
   sodipodi:docname="reflection.svg">
  <defs
     id="defs4" />
  <sodipodi:namedview
     id="base"
     pagecolor="#ffffff"
     bordercolor="#666666"
     borderopacity="1.0"
     inkscape:pageopacity="0.0"
     inkscape:pageshadow="2"
     inkscape:zoom="8"
     inkscape:cx="281.33113"
     inkscape:cy="514.53911"
     inkscape:document-units="px"
     inkscape:current-layer="layer1"
     showgrid="true"
     showguides="false"
     inkscape:snap-object-midpoints="true"
     inkscape:snap-grids="false"
     inkscape:snap-page="false"
     inkscape:window-width="2048"
     inkscape:window-height="1098"
     inkscape:window-x="0"
     inkscape:window-y="0"
     inkscape:window-maximized="1">
    <inkscape:grid
       type="xygrid"
       id="grid4136" />
  </sodipodi:namedview>
  <metadata
     id="metadata7">
    <rdf:RDF>
      <cc:Work
         rdf:about="">
        <dc:format>image/svg+xml</dc:format>
        <dc:type
           rdf:resource="http://purl.org/dc/dcmitype/StillImage" />
        <dc:title></dc:title>
      </cc:Work>
    </rdf:RDF>
  </metadata>
  <g
     inkscape:label="Laag 1"
     inkscape:groupmode="layer"
     id="layer1">
    <path
       style="fill:none;fill-rule:evenodd;stroke:#646464;stroke-width:1;stroke-linecap:butt;stroke-linejoin:miter;stroke-miterlimit:4;stroke-dasharray:none;stroke-dashoffset:0;stroke-opacity:1"
       d="m 232.38787,551.0044 50.11346,-28.40942"
       id="path4210"
       inkscape:connector-curvature="0" />
    <path
       style="fill:none;fill-rule:evenodd;stroke:#000000;stroke-width:0.5;stroke-linecap:butt;stroke-linejoin:miter;stroke-miterlimit:4;stroke-dasharray:0.5, 1;stroke-dashoffset:0;stroke-opacity:1"
       d="m 232.375,550.98718 39.99999,5e-5"
       id="path4256"
       inkscape:connector-curvature="0" />
    <circle
       style="opacity:0.97000002;fill:#000000;fill-opacity:1;stroke:none;stroke-width:0.5;stroke-linecap:round;stroke-miterlimit:4;stroke-dasharray:none;stroke-opacity:1"
       id="path4138-3"
       cx="252.375"
       cy="516.34619"
       r="1" />
    <circle
       style="opacity:0.97000002;fill:#000000;fill-opacity:1;stroke:none;stroke-width:0.5;stroke-linecap:round;stroke-miterlimit:4;stroke-dasharray:none;stroke-opacity:1"
       id="path4138"
       cx="232.375"
       cy="550.98718"
       r="1" />
    <circle
       style="opacity:0.97000002;fill:#000000;fill-opacity:1;stroke:none;stroke-width:0.5;stroke-linecap:round;stroke-miterlimit:4;stroke-dasharray:none;stroke-opacity:1"
       id="path4138-7"
       cx="272.375"
       cy="550.98718"
       r="1" />
    <g
       id="g4176-3"
       transform="matrix(-0.5,0.8660254,0.8660254,0.5,-32.533235,1.2736374)"
       style="opacity:0.6">
      <path
         sodipodi:nodetypes="sscssscss"
         inkscape:connector-curvature="0"
         id="path4159-5"
         d="m 314.13518,548.39168 c -1.89532,-1.89533 1.89533,-5.68598 2.84299,-6.63364 2.84299,-2.84299 6.63364,-2.84299 6.63364,-2.84299 0,0 3.79064,0 6.63363,-2.84298 0.94766,-0.94766 4.73831,-4.73831 2.84299,-6.63364 -1.89533,-1.89532 -5.68598,1.89533 -6.63364,2.84299 -2.84298,2.84299 -2.84298,6.63363 -2.84298,6.63363 0,0 0,3.79065 -2.84299,6.63364 -0.94766,0.94766 -4.73831,4.73831 -6.63364,2.84299 z"
         style="fill:#ff0000;fill-opacity:1;fill-rule:evenodd;stroke:none;stroke-width:1px;stroke-linecap:butt;stroke-linejoin:miter;stroke-opacity:1" />
      <path
         sodipodi:nodetypes="sscssscss"
         inkscape:connector-curvature="0"
         id="path4159-6-6"
         d="m 314.13519,529.43843 c 1.89533,-1.89532 5.68598,1.89533 6.63364,2.84299 2.84299,2.84298 2.84299,6.63364 2.84299,6.63364 0,0 0,3.79065 2.84298,6.63363 0.94766,0.94766 4.73831,4.73831 6.63364,2.84299 1.89532,-1.89533 -1.89533,-5.68597 -2.84299,-6.63364 -2.84299,-2.84298 -6.63363,-2.84298 -6.63363,-2.84298 0,0 -3.79065,0 -6.63364,-2.84299 -0.94766,-0.94767 -4.73831,-4.73831 -2.84299,-6.63364 z"
         style="fill:#0000ff;fill-opacity:1;fill-rule:evenodd;stroke:none;stroke-width:1px;stroke-linecap:butt;stroke-linejoin:miter;stroke-opacity:1" />
    </g>
    <path
       style="fill:none;fill-rule:evenodd;stroke:#000000;stroke-width:0.5;stroke-linecap:butt;stroke-linejoin:miter;stroke-miterlimit:4;stroke-dasharray:0.5, 1;stroke-dashoffset:0;stroke-opacity:1"
       d="M 232.375,550.98718 252.37501,516.3462"
       id="path4254"
       inkscape:connector-curvature="0" />
    <g
       id="g4176"
       transform="translate(-71.236803,-22.568852)"
       style="opacity:0.6">
      <path
         sodipodi:nodetypes="sscssscss"
         inkscape:connector-curvature="0"
         id="path4159"
         d="m 314.13518,548.39168 c -1.89532,-1.89533 1.89533,-5.68598 2.84299,-6.63364 2.84299,-2.84299 6.63364,-2.84299 6.63364,-2.84299 0,0 3.79064,0 6.63363,-2.84298 0.94766,-0.94766 4.73831,-4.73831 2.84299,-6.63364 -1.89533,-1.89532 -5.68598,1.89533 -6.63364,2.84299 -2.84298,2.84299 -2.84298,6.63363 -2.84298,6.63363 0,0 0,3.79065 -2.84299,6.63364 -0.94766,0.94766 -4.73831,4.73831 -6.63364,2.84299 z"
         style="fill:#ff0000;fill-opacity:1;fill-rule:evenodd;stroke:none;stroke-width:1px;stroke-linecap:butt;stroke-linejoin:miter;stroke-opacity:1" />
      <path
         sodipodi:nodetypes="sscssscss"
         inkscape:connector-curvature="0"
         id="path4159-6"
         d="m 314.13519,529.43843 c 1.89533,-1.89532 5.68598,1.89533 6.63364,2.84299 2.84299,2.84298 2.84299,6.63364 2.84299,6.63364 0,0 0,3.79065 2.84298,6.63363 0.94766,0.94766 4.73831,4.73831 6.63364,2.84299 1.89532,-1.89533 -1.89533,-5.68597 -2.84299,-6.63364 -2.84299,-2.84298 -6.63363,-2.84298 -6.63363,-2.84298 0,0 -3.79065,0 -6.63364,-2.84299 -0.94766,-0.94767 -4.73831,-4.73831 -2.84299,-6.63364 z"
         style="fill:#0000ff;fill-opacity:1;fill-rule:evenodd;stroke:none;stroke-width:1px;stroke-linecap:butt;stroke-linejoin:miter;stroke-opacity:1" />
    </g>
    <path
       style="fill:none;fill-rule:evenodd;stroke:#000000;stroke-width:0.5;stroke-linecap:butt;stroke-linejoin:miter;stroke-miterlimit:4;stroke-dasharray:0.5, 1;stroke-dashoffset:0;stroke-opacity:1"
       d="m 305.80986,551.09393 39.99999,5e-5"
       id="path4256-6"
       inkscape:connector-curvature="0" />
    <circle
       style="opacity:0.97000002;fill:#000000;fill-opacity:1;stroke:none;stroke-width:0.5;stroke-linecap:round;stroke-miterlimit:4;stroke-dasharray:none;stroke-opacity:1"
       id="path4138-3-8"
       cx="325.80984"
       cy="516.453"
       r="1" />
    <circle
       style="opacity:0.97000002;fill:#000000;fill-opacity:1;stroke:none;stroke-width:0.5;stroke-linecap:round;stroke-miterlimit:4;stroke-dasharray:none;stroke-opacity:1"
       id="path4138-38"
       cx="305.80984"
       cy="551.09399"
       r="1" />
    <circle
       style="opacity:0.97000002;fill:#000000;fill-opacity:1;stroke:none;stroke-width:0.5;stroke-linecap:round;stroke-miterlimit:4;stroke-dasharray:none;stroke-opacity:1"
       id="path4138-7-3"
       cx="345.80984"
       cy="551.09399"
       r="1" />
    <g
       id="g4176-3-3"
       transform="matrix(-0.8660254,0.5,0.5,0.8660254,356.60838,-77.426063)"
       style="opacity:0.6">
      <path
         sodipodi:nodetypes="sscssscss"
         inkscape:connector-curvature="0"
         id="path4159-5-3"
         d="m 314.13518,548.39168 c -1.89532,-1.89533 1.89533,-5.68598 2.84299,-6.63364 2.84299,-2.84299 6.63364,-2.84299 6.63364,-2.84299 0,0 3.79064,0 6.63363,-2.84298 0.94766,-0.94766 4.73831,-4.73831 2.84299,-6.63364 -1.89533,-1.89532 -5.68598,1.89533 -6.63364,2.84299 -2.84298,2.84299 -2.84298,6.63363 -2.84298,6.63363 0,0 0,3.79065 -2.84299,6.63364 -0.94766,0.94766 -4.73831,4.73831 -6.63364,2.84299 z"
         style="fill:#ff0000;fill-opacity:1;fill-rule:evenodd;stroke:none;stroke-width:1px;stroke-linecap:butt;stroke-linejoin:miter;stroke-opacity:1" />
      <path
         sodipodi:nodetypes="sscssscss"
         inkscape:connector-curvature="0"
         id="path4159-6-6-8"
         d="m 314.13519,529.43843 c 1.89533,-1.89532 5.68598,1.89533 6.63364,2.84299 2.84299,2.84298 2.84299,6.63364 2.84299,6.63364 0,0 0,3.79065 2.84298,6.63363 0.94766,0.94766 4.73831,4.73831 6.63364,2.84299 1.89532,-1.89533 -1.89533,-5.68597 -2.84299,-6.63364 -2.84299,-2.84298 -6.63363,-2.84298 -6.63363,-2.84298 0,0 -3.79065,0 -6.63364,-2.84299 -0.94766,-0.94767 -4.73831,-4.73831 -2.84299,-6.63364 z"
         style="fill:#0000ff;fill-opacity:1;fill-rule:evenodd;stroke:none;stroke-width:1px;stroke-linecap:butt;stroke-linejoin:miter;stroke-opacity:1" />
    </g>
    <path
       style="fill:none;fill-rule:evenodd;stroke:#000000;stroke-width:0.5;stroke-linecap:butt;stroke-linejoin:miter;stroke-miterlimit:4;stroke-dasharray:0.5, 1;stroke-dashoffset:0;stroke-opacity:1"
       d="m 305.80986,551.09393 20.00001,-34.64098"
       id="path4254-0"
       inkscape:connector-curvature="0" />
    <g
       id="g4176-4"
       transform="translate(2.1980638,-22.462096)"
       style="opacity:0.6">
      <path
         sodipodi:nodetypes="sscssscss"
         inkscape:connector-curvature="0"
         id="path4159-7"
         d="m 314.13518,548.39168 c -1.89532,-1.89533 1.89533,-5.68598 2.84299,-6.63364 2.84299,-2.84299 6.63364,-2.84299 6.63364,-2.84299 0,0 3.79064,0 6.63363,-2.84298 0.94766,-0.94766 4.73831,-4.73831 2.84299,-6.63364 -1.89533,-1.89532 -5.68598,1.89533 -6.63364,2.84299 -2.84298,2.84299 -2.84298,6.63363 -2.84298,6.63363 0,0 0,3.79065 -2.84299,6.63364 -0.94766,0.94766 -4.73831,4.73831 -6.63364,2.84299 z"
         style="fill:#ff0000;fill-opacity:1;fill-rule:evenodd;stroke:none;stroke-width:1px;stroke-linecap:butt;stroke-linejoin:miter;stroke-opacity:1" />
      <path
         sodipodi:nodetypes="sscssscss"
         inkscape:connector-curvature="0"
         id="path4159-6-68"
         d="m 314.13519,529.43843 c 1.89533,-1.89532 5.68598,1.89533 6.63364,2.84299 2.84299,2.84298 2.84299,6.63364 2.84299,6.63364 0,0 0,3.79065 2.84298,6.63363 0.94766,0.94766 4.73831,4.73831 6.63364,2.84299 1.89532,-1.89533 -1.89533,-5.68597 -2.84299,-6.63364 -2.84299,-2.84298 -6.63363,-2.84298 -6.63363,-2.84298 0,0 -3.79065,0 -6.63364,-2.84299 -0.94766,-0.94767 -4.73831,-4.73831 -2.84299,-6.63364 z"
         style="fill:#0000ff;fill-opacity:1;fill-rule:evenodd;stroke:none;stroke-width:1px;stroke-linecap:butt;stroke-linejoin:miter;stroke-opacity:1" />
    </g>
  </g>
</svg>
