{
    "MoS2": {
        "e1": 1.0688, "e3": -0.7755, "e4": -1.2902, "e6": -0.1380, "e7": 0.0874, "e9": -2.8949, "e10": -1.9065,
        "t11": -0.2069, "t22": 0.0323, "t33": -0.1739, "t44": 0.8651, "t55": -0.1872, "t66": -0.2979, "t77": 0.2747, "t88": -0.5581, "t99": -0.1916, "t1010": 0.9122, "t1111": 0.0059,
        "t35": -0.0679, "t68": 0.4096, "t911": 0.0075, "t12": -0.2562, "t34": -0.0995, "t45": -0.0705, "t67": -0.1145, "t78": -0.2487, "t910": 0.1063, "t1011": -0.0385,
        "u41": -0.7883, "u32": -1.3790, "u52": 2.1584, "u96": -0.8836, "u116": -0.9402, "u107": 1.4114, "u98": -0.9535, "u118": 0.6517,
        "r96": -0.0686, "r116": -0.1498, "r98": -0.2205, "r118": -0.2451,
        "lambdaM": 0.0836, "lambdaX": 0.0556
    },
    "WS2": {
        "e1": 1.3754, "e3": -1.1278, "e4": -1.5534, "e6": -0.0393, "e7": 0.1984, "e9": -3.3706, "e10": -2.3461,
        "t11": -0.2011, "t22": 0.0263, "t33": -0.1749, "t44": 0.8726, "t55": -0.2187, "t66": -0.3716, "t77": 0.3537, "t88": -0.6892, "t99": -0.2112, "t1010": 0.9673, "t1111": 0.0143,
        "t35": -0.0818, "t68": 0.4896, "t911": -0.0315, "t12": -0.3106, "t34": -0.1105, "t45": -0.0989, "t67": -0.1467, "t78": -0.3030, "t910": 0.1645, "t1011": -0.1018,
        "u41": -0.8855, "u32": -1.4376, "u52": 2.3121, "u96": -1.0130, "u116": -0.9878, "u107": 1.5629, "u98": -0.9491, "u118": 0.6718,
        "r96": -0.0659, "r116": -0.1533, "r98": -0.2618, "r118": -0.2736,
        "lambdaM": 0.2874, "lambdaX": 0.0556
    },
    "WSe2": {
        "e1": 1.0349, "e3": -0.9573, "e4": -1.3937, "e6": -0.1667, "e7": 0.0984, "e9": -3.3642, "e10": -2.1820,
        "t11": -0.1395, "t22": 0.0129, "t33": -0.2171, "t44": 0.9763, "t55": -0.1985, "t66": -0.3330, "t77": 0.3190, "t88": -0.5837, "t99": -0.2399, "t1010": 1.0470, "t1111": 0.0029,
        "t35": -0.0912, "t68": 0.4233, "t911": -0.0377, "t12": -0.2321, "t34": -0.0797, "t45": -0.0920, "t67": -0.1250, "t78": -0.2456, "t910": 0.1857, "t1011": -0.1027,
        "u41": -0.7744, "u32": -1.4014, "u52": 2.0858, "u96": -0.8998, "u116": -0.9044, "u107": 1.4030, "u98": -0.8548, "u118": 0.5711,
        "r96": -0.0676, "r116": -0.1608, "r98": -0.2618, "r118": -0.2424,
        "lambdaM": 0.2874, "lambdaX": 0.2470
    }
}
