\relax 
\providecommand\hyper@newdestlabel[2]{}
\providecommand\HyperFirstAtBeginDocument{\AtBeginDocument}
\HyperFirstAtBeginDocument{\ifx\hyper@anchor\@undefined
\global\let\oldcontentsline\contentsline
\gdef\contentsline#1#2#3#4{\oldcontentsline{#1}{#2}{#3}}
\global\let\oldnewlabel\newlabel
\gdef\newlabel#1#2{\newlabelxx{#1}#2}
\gdef\newlabelxx#1#2#3#4#5#6{\oldnewlabel{#1}{{#2}{#3}}}
\AtEndDocument{\ifx\hyper@anchor\@undefined
\let\contentsline\oldcontentsline
\let\newlabel\oldnewlabel
\fi}
\fi}
\global\let\hyper@last\relax 
\gdef\HyperFirstAtBeginDocument#1{#1}
\providecommand\HyField@AuxAddToFields[1]{}
\providecommand\HyField@AuxAddToCoFields[2]{}
\citation{bromley_band_1972}
\citation{mak_atomically_2010,ross_electrical_2013,splendiani_emerging_2010,ruppert_optical_2014,zeng_optical_2013,tongay_thermally_2012}
\citation{xiao_coupled_2012,zhu_giant_2011}
\citation{wolf_spintronics:_2001,husain_spin_2018}
\citation{rycerz_valley_2007,mak_control_2012,zeng_valley_2012,cao_valley-selective_2012}
\citation{taniguchi_electric-field-induced_2012,miao_emergence_2016,costanzo_gate-induced_2016,zheliuk_monolayer_2017,ye_superconducting_2012,shi_superconductivity_2015,lu_evidence_2015,lu_full_2018,saito_superconductivity_2016,saito_gate-induced_2016}
\citation{ye_superconducting_2012,lu_evidence_2015}
\citation{lu_evidence_2015,lu_full_2018,saito_superconductivity_2016,saito_gate-induced_2016}
\citation{clogston_upper_1962,chandrasekhar_note_1962}
\citation{lu_evidence_2015,saito_superconductivity_2016}
\citation{kosmider_large_2013,liu_three-band_2013,kormanyos_k.p_2015}
\citation{wang_platform_2018}
\citation{lu_evidence_2015,saito_superconductivity_2016}
\citation{wang_platform_2018}
\citation{fang_ab_2015}
\citation{kormanyos_k.p_2015}
\citation{lowdin_note_1951,wang_electron_2014}
\newlabel{FirstPage}{{}{1}{}{section*.1}{}}
\newlabel{FirstPage@cref}{{}{1}}
\@writefile{toc}{\contentsline {title}{Critical field due to momentum dependent Ising spin-orbit coupling in superconducting transition metal dichalcogenide monolayers.}{1}{section*.2}}
\@writefile{toc}{\contentsline {abstract}{Abstract}{1}{section*.1}}
\@writefile{toc}{\contentsline {section}{\numberline {I}Introduction}{1}{section*.3}}
\@writefile{toc}{\contentsline {section}{\numberline {II}Model}{1}{section*.4}}
\newlabel{eq:BdG}{{1}{1}{}{equation.2.1}{}}
\newlabel{eq:BdG@cref}{{[equation][1][]1}{1}}
\citation{kormanyos_k.p_2015}
\citation{fang_ab_2015}
\citation{kormanyos_k.p_2015}
\citation{fang_ab_2015}
\citation{ye_superconducting_2012}
\citation{shi_superconductivity_2015}
\citation{shi_superconductivity_2015}
\citation{lu_full_2018}
\citation{he_magnetic_2018}
\citation{wang_platform_2018}
\citation{ye_superconducting_2012,lu_evidence_2015,shi_superconductivity_2015}
\citation{lu_full_2018}
\citation{tinkham_introduction_1996}
\@writefile{lot}{\contentsline {table}{\numberline {I}{\ignorespaces The \ensuremath  {\vb {k}\vdot \vb {p}}\xspace  parameters ($m^*$, $\lambda $, $A_1$, $A_2$), the lower and upper bound of the vanishing region ($\mu _{min}$, $\mu _{max}$), and the critical chemical potential ($\mu _c$) for the materials \ce {MoS2}, \ce {MoSe2}, \ce {MoTe2}, and \ce {WS2}. $m_e$ denotes the electron rest mass. The \ensuremath  {\vb {k}\vdot \vb {p}}\xspace  parameters of \ce {MoTe2} as well as $m^*$ of \ce {MoSe2} are based on Kormányos et al.~\cite  {kormanyos_k.p_2015}, while the other \ensuremath  {\vb {k}\vdot \vb {p}}\xspace  parameters are based on Fang et al.~\cite  {fang_ab_2015}\relax }}{2}{table.caption.5}}
\providecommand*\caption@xref[2]{\@setref\relax\@undefined{#1}}
\newlabel{tab:materialProperties}{{I}{2}{The \kdotp parameters ($m^*$, $\lambda $, $A_1$, $A_2$), the lower and upper bound of the vanishing region ($\mu _{min}$, $\mu _{max}$), and the critical chemical potential ($\mu _c$) for the materials \ce {MoS2}, \ce {MoSe2}, \ce {MoTe2}, and \ce {WS2}. $m_e$ denotes the electron rest mass. The \kdotp parameters of \ce {MoTe2} as well as $m^*$ of \ce {MoSe2} are based on Kormányos et al.~\cite {kormanyos_k.p_2015}, while the other \kdotp parameters are based on Fang et al.~\cite {fang_ab_2015}\relax }{table.caption.5}{}}
\newlabel{tab:materialProperties@cref}{{[table][1][]I}{2}}
\newlabel{eq:freeEnergy}{{2}{2}{}{equation.2.2}{}}
\newlabel{eq:freeEnergy@cref}{{[equation][2][]2}{2}}
\@writefile{toc}{\contentsline {section}{\numberline {III}Results}{2}{section*.6}}
\@writefile{toc}{\contentsline {subsection}{\numberline {A}Critical field at zero temperature}{2}{section*.7}}
\newlabel{fig:MoSe2_zeroT_ratio}{{1a}{2}{\ce {MoSe2}\relax }{figure.caption.8}{}}
\newlabel{fig:MoSe2_zeroT_ratio@cref}{{[subfigure][1][1]1a}{2}}
\newlabel{sub@fig:MoSe2_zeroT_ratio}{{a}{2}{\ce {MoSe2}\relax }{figure.caption.8}{}}
\newlabel{sub@fig:MoSe2_zeroT_ratio@cref}{{[subfigure][1][1]1a}{2}}
\newlabel{fig:MoTe2_zeroT_ratio}{{1b}{2}{\ce {MoTe2}\relax }{figure.caption.8}{}}
\newlabel{fig:MoTe2_zeroT_ratio@cref}{{[subfigure][2][1]1b}{2}}
\newlabel{sub@fig:MoTe2_zeroT_ratio}{{b}{2}{\ce {MoTe2}\relax }{figure.caption.8}{}}
\newlabel{sub@fig:MoTe2_zeroT_ratio@cref}{{[subfigure][2][1]1b}{2}}
\newlabel{fig:MoS2_zeroT_ratio}{{1c}{2}{\ce {MoS2}\relax }{figure.caption.8}{}}
\newlabel{fig:MoS2_zeroT_ratio@cref}{{[subfigure][3][1]1c}{2}}
\newlabel{sub@fig:MoS2_zeroT_ratio}{{c}{2}{\ce {MoS2}\relax }{figure.caption.8}{}}
\newlabel{sub@fig:MoS2_zeroT_ratio@cref}{{[subfigure][3][1]1c}{2}}
\newlabel{fig:WS2_zeroT_ratio}{{1d}{2}{\ce {WS2}\relax }{figure.caption.8}{}}
\newlabel{fig:WS2_zeroT_ratio@cref}{{[subfigure][4][1]1d}{2}}
\newlabel{sub@fig:WS2_zeroT_ratio}{{d}{2}{\ce {WS2}\relax }{figure.caption.8}{}}
\newlabel{sub@fig:WS2_zeroT_ratio@cref}{{[subfigure][4][1]1d}{2}}
\@writefile{lof}{\contentsline {figure}{\numberline {1}{\ignorespaces The critical fields with respect to the Pauli limit as a function of chemical potential and $\Delta _0$ for (a) \ce {MoSe2}, (b) \ce {MoTe2}, (c) \ce {MoS2}, and (d) \ce {WS2} at \SI {0}{\K }. The white dotted vertical lines indicate the vanishing region (if present) and the vertical green line in the plots indicate the critical chemical potential.\relax }}{2}{figure.caption.8}}
\newlabel{fig:zeroT_ratio}{{1}{2}{The critical fields with respect to the Pauli limit as a function of chemical potential and $\Delta _0$ for (a) \ce {MoSe2}, (b) \ce {MoTe2}, (c) \ce {MoS2}, and (d) \ce {WS2} at \SI {0}{\K }. The white dotted vertical lines indicate the vanishing region (if present) and the vertical green line in the plots indicate the critical chemical potential.\relax }{figure.caption.8}{}}
\newlabel{fig:zeroT_ratio@cref}{{[figure][1][]1}{2}}
\@writefile{toc}{\contentsline {subsection}{\numberline {B}Critical field at fixed $\Delta _0$}{2}{section*.9}}
\citation{ilic_enhancement_2017}
\citation{huertas-hernando_spin-orbit_2006}
\citation{ilic_enhancement_2017,lu_evidence_2015,liu_microscopic_2019}
\bibdata{manuscriptNotes,Manuscript}
\bibcite{bromley_band_1972}{{1}{1972}{{Bromley\ \emph  {et~al.}}}{{Bromley, Murray,\ and\ Yoffe}}}
\bibcite{mak_atomically_2010}{{2}{2010}{{Mak\ \emph  {et~al.}}}{{Mak, Lee, Hone, Shan,\ and\ Heinz}}}
\bibcite{ross_electrical_2013}{{3}{2013}{{Ross\ \emph  {et~al.}}}{{Ross, Wu, Yu, Ghimire, Jones, Aivazian, Yan, Mandrus, Xiao, Yao,\ and\ Xu}}}
\bibcite{splendiani_emerging_2010}{{4}{2010}{{Splendiani\ \emph  {et~al.}}}{{Splendiani, Sun, Zhang, Li, Kim, Chim, Galli,\ and\ Wang}}}
\bibcite{ruppert_optical_2014}{{5}{2014}{{Ruppert\ \emph  {et~al.}}}{{Ruppert, Aslan,\ and\ Heinz}}}
\bibcite{zeng_optical_2013}{{6}{2013}{{Zeng\ \emph  {et~al.}}}{{Zeng, Liu, Dai, Yan, Zhu, He, Xie, Xu, Chen, Yao,\ and\ Cui}}}
\bibcite{tongay_thermally_2012}{{7}{2012}{{Tongay\ \emph  {et~al.}}}{{Tongay, Zhou, Ataca, Lo, Matthews, Li, Grossman,\ and\ Wu}}}
\bibcite{xiao_coupled_2012}{{8}{2012}{{Xiao\ \emph  {et~al.}}}{{Xiao, Liu, Feng, Xu,\ and\ Yao}}}
\bibcite{zhu_giant_2011}{{9}{2011}{{Zhu\ \emph  {et~al.}}}{{Zhu, Cheng,\ and\ Schwingenschlögl}}}
\newlabel{fig:MoSe2_finiteT}{{2a}{3}{\ce {MoSe2},\\$\Delta _0 \approx \SI {0.54}{\meV }$\relax }{figure.caption.10}{}}
\newlabel{fig:MoSe2_finiteT@cref}{{[subfigure][1][2]2a}{3}}
\newlabel{sub@fig:MoSe2_finiteT}{{a}{3}{\ce {MoSe2},\\$\Delta _0 \approx \SI {0.54}{\meV }$\relax }{figure.caption.10}{}}
\newlabel{sub@fig:MoSe2_finiteT@cref}{{[subfigure][1][2]2a}{3}}
\newlabel{fig:MoTe2_finiteT}{{2b}{3}{\ce {MoTe2},\\$\Delta _0 \approx \SI {0.21}{\meV }$\relax }{figure.caption.10}{}}
\newlabel{fig:MoTe2_finiteT@cref}{{[subfigure][2][2]2b}{3}}
\newlabel{sub@fig:MoTe2_finiteT}{{b}{3}{\ce {MoTe2},\\$\Delta _0 \approx \SI {0.21}{\meV }$\relax }{figure.caption.10}{}}
\newlabel{sub@fig:MoTe2_finiteT@cref}{{[subfigure][2][2]2b}{3}}
\newlabel{fig:MoS2_finiteT}{{2c}{3}{\ce {MoS2},\\$\Delta _0 \approx \SI {0.82}{\meV }$\relax }{figure.caption.10}{}}
\newlabel{fig:MoS2_finiteT@cref}{{[subfigure][3][2]2c}{3}}
\newlabel{sub@fig:MoS2_finiteT}{{c}{3}{\ce {MoS2},\\$\Delta _0 \approx \SI {0.82}{\meV }$\relax }{figure.caption.10}{}}
\newlabel{sub@fig:MoS2_finiteT@cref}{{[subfigure][3][2]2c}{3}}
\newlabel{fig:WS2_finiteT}{{2d}{3}{\ce {WS2},\\$\Delta _0 \approx \SI {0.24}{\meV }$\relax }{figure.caption.10}{}}
\newlabel{fig:WS2_finiteT@cref}{{[subfigure][4][2]2d}{3}}
\newlabel{sub@fig:WS2_finiteT}{{d}{3}{\ce {WS2},\\$\Delta _0 \approx \SI {0.24}{\meV }$\relax }{figure.caption.10}{}}
\newlabel{sub@fig:WS2_finiteT@cref}{{[subfigure][4][2]2d}{3}}
\@writefile{lof}{\contentsline {figure}{\numberline {2}{\ignorespaces The critical fields with respect to the Pauli limit as a function of chemical potential and temperature for (a) \ce {MoSe2}, (b) \ce {MoTe2}, (c) \ce {MoS2}, and (d) \ce {WS2} at \SI {0}{\K }. The fixed value of $\Delta _0$ of the material is equal to half of the maximum value of $\Delta _0$ found in experiments. The white dotted vertical lines indicate the vanishing region (if present) and the vertical green line in the plots indicate the critical chemical potential.\relax }}{3}{figure.caption.10}}
\newlabel{fig:finiteT}{{2}{3}{The critical fields with respect to the Pauli limit as a function of chemical potential and temperature for (a) \ce {MoSe2}, (b) \ce {MoTe2}, (c) \ce {MoS2}, and (d) \ce {WS2} at \SI {0}{\K }. The fixed value of $\Delta _0$ of the material is equal to half of the maximum value of $\Delta _0$ found in experiments. The white dotted vertical lines indicate the vanishing region (if present) and the vertical green line in the plots indicate the critical chemical potential.\relax }{figure.caption.10}{}}
\newlabel{fig:finiteT@cref}{{[figure][2][]2}{3}}
\@writefile{toc}{\contentsline {section}{\numberline {IV}Discussion}{3}{section*.11}}
\@writefile{toc}{\appendix }
\@writefile{toc}{\contentsline {section}{\numberline {A}Actual critical field values}{3}{section*.12}}
\newlabel{app:actual_values}{{A}{3}{}{section*.12}{}}
\newlabel{app:actual_values@cref}{{[appendix][1][2147483647]A}{3}}
\@writefile{toc}{\contentsline {section}{\numberline {}References}{3}{section*.13}}
\bibcite{wolf_spintronics:_2001}{{10}{2001}{{Wolf\ \emph  {et~al.}}}{{Wolf, Awschalom, Buhrman, Daughton, Molnár, Roukes, Chtchelkanova,\ and\ Treger}}}
\bibcite{husain_spin_2018}{{11}{2018}{{Husain\ \emph  {et~al.}}}{{Husain, Kumar, Kumar, Kumar, Barwal, Behera, Choudhary, Svedlindh,\ and\ Chaudhary}}}
\bibcite{rycerz_valley_2007}{{12}{2007}{{Rycerz\ \emph  {et~al.}}}{{Rycerz, Tworzydło,\ and\ Beenakker}}}
\bibcite{mak_control_2012}{{13}{2012}{{Mak\ \emph  {et~al.}}}{{Mak, He, Shan,\ and\ Heinz}}}
\bibcite{zeng_valley_2012}{{14}{2012}{{Zeng\ \emph  {et~al.}}}{{Zeng, Dai, Yao, Xiao,\ and\ Cui}}}
\bibcite{cao_valley-selective_2012}{{15}{2012}{{Cao\ \emph  {et~al.}}}{{Cao, Wang, Han, Ye, Zhu, Shi, Niu, Tan, Wang, Liu,\ and\ Feng}}}
\bibcite{taniguchi_electric-field-induced_2012}{{16}{2012}{{Taniguchi\ \emph  {et~al.}}}{{Taniguchi, Matsumoto, Shimotani,\ and\ Takagi}}}
\bibcite{miao_emergence_2016}{{17}{2016}{{Miao\ \emph  {et~al.}}}{{Miao, Nishiyama, Zheng, Goto, Eguchi, Ota, Kambe, Terashima, Yokoya, Nguyen, Kagayama, Hirao, Ohishi, Ishii, Liao,\ and\ Kubozono}}}
\bibcite{costanzo_gate-induced_2016}{{18}{2016}{{Costanzo\ \emph  {et~al.}}}{{Costanzo, Jo, Berger,\ and\ Morpurgo}}}
\bibcite{zheliuk_monolayer_2017}{{19}{2017}{{Zheliuk\ \emph  {et~al.}}}{{Zheliuk, Lu, Yang,\ and\ Ye}}}
\bibcite{ye_superconducting_2012}{{20}{2012}{{Ye\ \emph  {et~al.}}}{{Ye, Zhang, Akashi, Bahramy, Arita,\ and\ Iwasa}}}
\bibcite{shi_superconductivity_2015}{{21}{2015}{{Shi\ \emph  {et~al.}}}{{Shi, Ye, Zhang, Suzuki, Yoshida, Miyazaki, Inoue, Saito,\ and\ Iwasa}}}
\bibcite{lu_evidence_2015}{{22}{2015}{{Lu\ \emph  {et~al.}}}{{Lu, Zheliuk, Leermakers, Yuan, Zeitler, Law,\ and\ Ye}}}
\bibcite{lu_full_2018}{{23}{2018}{{Lu\ \emph  {et~al.}}}{{Lu, Zheliuk, Chen, Leermakers, Hussey, Zeitler,\ and\ Ye}}}
\bibcite{saito_superconductivity_2016}{{24}{2016{}}{{Saito\ \emph  {et~al.}}}{{Saito, Nakamura, Bahramy, Kohama, Ye, Kasahara, Nakagawa, Onga, Tokunaga, Nojima, Yanase,\ and\ Iwasa}}}
\bibcite{saito_gate-induced_2016}{{25}{2016{}}{{Saito\ \emph  {et~al.}}}{{Saito, Nojima,\ and\ Iwasa}}}
\bibcite{clogston_upper_1962}{{26}{1962}{{Clogston}}{{}}}
\bibcite{chandrasekhar_note_1962}{{27}{1962}{{Chandrasekhar}}{{}}}
\bibcite{kosmider_large_2013}{{28}{2013}{{Kośmider\ \emph  {et~al.}}}{{Kośmider, González,\ and\ Fernández-Rossier}}}
\bibcite{liu_three-band_2013}{{29}{2013}{{Liu\ \emph  {et~al.}}}{{Liu, Shan, Yao, Yao,\ and\ Xiao}}}
\bibcite{kormanyos_k.p_2015}{{30}{2015}{{Kormányos\ \emph  {et~al.}}}{{Kormányos, Burkard, Gmitra, Fabian, Zólyomi, Drummond,\ and\ Fal'ko}}}
\bibcite{wang_platform_2018}{{31}{2018}{{Wang\ \emph  {et~al.}}}{{Wang, Rosdahl,\ and\ Sticlet}}}
\bibcite{fang_ab_2015}{{32}{2015}{{Fang\ \emph  {et~al.}}}{{Fang, Kuate~Defo, Shirodkar, Lieu, Tritsaris,\ and\ Kaxiras}}}
\bibcite{lowdin_note_1951}{{33}{1951}{{Löwdin}}{{}}}
\bibcite{wang_electron_2014}{{34}{2014}{{Wang\ and\ Wu}}{{}}}
\bibcite{he_magnetic_2018}{{35}{2018}{{He\ \emph  {et~al.}}}{{He, Zhou, He, Yuan, Zhang,\ and\ Law}}}
\bibcite{tinkham_introduction_1996}{{36}{1996}{{Tinkham}}{{}}}
\bibcite{ilic_enhancement_2017}{{37}{2017}{{Ilić\ \emph  {et~al.}}}{{Ilić, Meyer,\ and\ Houzet}}}
\bibcite{huertas-hernando_spin-orbit_2006}{{38}{2006}{{Huertas-Hernando\ \emph  {et~al.}}}{{Huertas-Hernando, Guinea,\ and\ Brataas}}}
\bibcite{liu_microscopic_2019}{{39}{2019}{{Liu\ \emph  {et~al.}}}{{Liu, Liu, Zhang,\ and\ Xie}}}
\bibstyle{apsrev4-1}
\newlabel{LastBibItem}{{39}{4}{}{section*.13}{}}
\newlabel{LastBibItem@cref}{{[appendix][1][2147483647]A}{4}}
\newlabel{LastPage}{{}{4}{}{}{}}
